<?xml version="1.0" encoding="UTF-8" standalone="no"?>
<!-- Created with Inkscape (http://www.inkscape.org/) -->

<svg
   xmlns:dc="http://purl.org/dc/elements/1.1/"
   xmlns:cc="http://creativecommons.org/ns#"
   xmlns:rdf="http://www.w3.org/1999/02/22-rdf-syntax-ns#"
   xmlns:svg="http://www.w3.org/2000/svg"
   xmlns="http://www.w3.org/2000/svg"
   xmlns:sodipodi="http://sodipodi.sourceforge.net/DTD/sodipodi-0.dtd"
   xmlns:inkscape="http://www.inkscape.org/namespaces/inkscape"
   width="191.33858"
   height="92.125984"
   id="svg2"
   version="1.1"
   inkscape:version="0.91 r13725"
   sodipodi:docname="arendi_logo_slogan.svg"
   inkscape:export-filename="M:\Bildresourcen\Logo\arendi_logo_slogan.png"
   inkscape:export-xdpi="1410.6769"
   inkscape:export-ydpi="1410.6769">
  <sodipodi:namedview
     id="base"
     pagecolor="#ffffff"
     bordercolor="#666666"
     borderopacity="1.0"
     inkscape:pageopacity="0.0"
     inkscape:pageshadow="2"
     inkscape:zoom="0.45335771"
     inkscape:cx="-201.25411"
     inkscape:cy="810.93438"
     inkscape:document-units="mm"
     inkscape:current-layer="layer1"
     showgrid="false"
     borderlayer="true"
     inkscape:window-width="2486"
     inkscape:window-height="1413"
     inkscape:window-x="65"
     inkscape:window-y="-9"
     inkscape:window-maximized="1"
     showguides="true"
     inkscape:guide-bbox="true"
     units="mm"
     inkscape:snap-global="false">
    <sodipodi:guide
       id="guide3764"
       position="781.45951,223.49742"
       orientation="0,1" />
    <sodipodi:guide
       orientation="1,0"
       position="719.72421,283.6698"
       id="guide4254" />
    <sodipodi:guide
       orientation="1,0"
       position="-127.18571,-45.489778"
       id="guide4256" />
    <sodipodi:guide
       orientation="0,1"
       position="244.59683,496.22679"
       id="guide4262" />
    <sodipodi:guide
       orientation="0,1"
       position="-39.785423,254.73722"
       id="guide4444" />
    <sodipodi:guide
       orientation="1,0"
       position="-32.166131,161.48711"
       id="guide3517" />
    <sodipodi:guide
       orientation="1,0"
       position="390.58873,173.30323"
       id="guide3519" />
    <sodipodi:guide
       orientation="1,0"
       position="7.0787665,67.770486"
       id="guide3530" />
    <sodipodi:guide
       orientation="1,0"
       position="184.28002,61.620082"
       id="guide3532" />
    <sodipodi:guide
       orientation="0,1"
       position="67.42235,85.061244"
       id="guide3534" />
    <sodipodi:guide
       orientation="0,1"
       position="25.646023,7.0787665"
       id="guide3536" />
    <sodipodi:guide
       orientation="1,0"
       position="14.157533,84.597062"
       id="guide3538" />
    <sodipodi:guide
       orientation="1,0"
       position="177.08521,87.034015"
       id="guide3540" />
    <sodipodi:guide
       orientation="0,1"
       position="66.726078,77.982477"
       id="guide3542" />
    <sodipodi:guide
       orientation="0,1"
       position="41.1961,14.041488"
       id="guide3544" />
    <inkscape:grid
       type="xygrid"
       id="grid3546"
       empspacing="5"
       visible="true"
       enabled="true"
       snapvisiblegridlinesonly="true" />
  </sodipodi:namedview>
  <defs
     id="defs4" />
  <metadata
     id="metadata7">
    <rdf:RDF>
      <cc:Work
         rdf:about="">
        <dc:format>image/svg+xml</dc:format>
        <dc:type
           rdf:resource="http://purl.org/dc/dcmitype/StillImage" />
        <dc:title />
      </cc:Work>
    </rdf:RDF>
  </metadata>
  <g
     transform="translate(0,-960.23617)"
     id="layer1"
     inkscape:groupmode="layer"
     inkscape:label="Ebene 1">
    <g
       transform="matrix(0.23059593,0,0,0.23059593,10.697735,926.5661)"
       id="g8528">
      <path
         inkscape:connector-curvature="0"
         id="path8530"
         style="font-size:232.55749512px;font-style:normal;font-variant:normal;font-weight:bold;font-stretch:normal;line-height:125%;letter-spacing:0px;word-spacing:0px;fill:#000000;fill-opacity:1;stroke:none;font-family:Century Gothic;-inkscape-font-specification:Century Gothic Bold"
         d="m 110.7827,260.03782 30.88654,0 0,123.54616 -30.88654,0 0,-13.05864 c -6.05629,5.75338 -12.131395,9.89808 -18.225336,12.4341 -6.094118,2.53603 -12.699138,3.80404 -19.815079,3.80404 -15.973241,0 -29.788898,-6.18866 -41.447015,-18.56599 -11.658171,-12.3773 -17.487243,-27.76378 -17.487233,-46.15948 -1e-5,-19.0769 5.639806,-34.70942 16.919466,-46.89758 11.279606,-12.18796 24.98171,-18.28199 41.106354,-18.28211 7.418751,1.2e-4 14.383356,1.40062 20.893837,4.20148 6.510304,2.8011 12.528636,7.00258 18.055006,12.60443 z m -32.589849,25.43597 c -9.614258,10e-5 -17.600844,3.38777 -23.959781,10.16304 -6.359038,6.77543 -9.538532,15.46227 -9.538491,26.06052 -4.1e-5,10.67407 3.23623,19.45553 9.708821,26.3444 6.472491,6.88894 14.440151,10.33339 23.903004,10.33337 9.765514,2e-5 17.865653,-3.38765 24.300446,-10.16304 6.43459,-6.77531 9.65193,-15.6514 9.65204,-26.62829 -1.1e-4,-10.74965 -3.21745,-19.45541 -9.65204,-26.11729 -6.434793,-6.66171 -14.572783,-9.99261 -24.413999,-9.99271 z" />
      <path
         inkscape:connector-curvature="0"
         id="path8532"
         style="font-size:232.55749512px;font-style:normal;font-variant:normal;font-weight:bold;font-stretch:normal;line-height:125%;letter-spacing:0px;word-spacing:0px;fill:#000000;fill-opacity:1;stroke:none;font-family:Century Gothic;-inkscape-font-specification:Century Gothic Bold"
         d="m 165.74256,260.03782 26.57152,0 0,15.55682 c 2.87665,-6.13177 6.69961,-10.78746 11.4689,-13.96708 4.76919,-3.17937 9.99264,-4.76912 15.67037,-4.76924 4.01216,1.2e-4 8.21363,1.05996 12.60444,3.1795 l -9.65205,26.68506 c -3.63377,-1.81676 -6.62401,-2.72518 -8.97072,-2.72528 -4.7693,1e-4 -8.80044,2.95248 -12.09344,8.85717 -3.2931,5.90486 -4.93962,17.4873 -4.93958,34.74736 l 0.11355,6.01833 0,49.96352 -30.77299,0 z" />
      <path
         inkscape:connector-curvature="0"
         id="path8534"
         style="font-size:232.55749512px;font-style:normal;font-variant:normal;font-weight:bold;font-stretch:normal;line-height:125%;letter-spacing:0px;word-spacing:0px;fill:#f18e00;fill-opacity:1;stroke:none;font-family:Century Gothic;-inkscape-font-specification:Century Gothic Bold"
         d="m 371.27434,330.78162 -99.58639,0 c 1.4383,8.78152 5.28019,15.76505 11.52567,20.95062 6.24539,5.18563 14.21305,7.77843 23.90301,7.77841 11.58237,2e-5 21.53721,-4.05005 29.86456,-12.15022 l 26.1173,12.26377 c -6.51053,9.2357 -14.30786,16.06783 -23.39202,20.4964 -9.08437,4.42859 -19.87194,6.64288 -32.36273,6.64288 -19.37985,0 -35.16377,-6.11296 -47.3518,-18.33888 -12.18809,-12.2259 -18.28212,-27.53668 -18.28211,-45.93238 -1e-5,-18.84979 6.0751,-34.50123 18.22533,-46.95436 12.15018,-12.45291 27.38526,-18.67942 45.70527,-18.67954 19.4554,1.2e-4 35.27717,6.22663 47.46535,18.67954 12.18794,12.45313 18.28197,28.89944 18.28211,49.33898 z m -31.11365,-24.41399 c -2.04407,-6.88883 -6.07522,-12.49079 -12.09345,-16.80591 -6.01842,-4.31494 -13.00195,-6.47245 -20.95061,-6.47255 -8.63013,10e-5 -16.20035,2.42257 -22.71069,7.26742 -4.08798,3.02818 -7.87309,8.36519 -11.35535,16.01104 z" />
      <path
         inkscape:connector-curvature="0"
         id="path8536"
         style="font-size:232.55749512px;font-style:normal;font-variant:normal;font-weight:bold;font-stretch:normal;line-height:125%;letter-spacing:0px;word-spacing:0px;fill:#f18e00;fill-opacity:1;stroke:none;font-family:Century Gothic;-inkscape-font-specification:Century Gothic Bold"
         d="m 396.48321,260.03782 30.88654,0 0,12.60443 c 7.04026,-5.90466 13.41817,-10.01151 19.13376,-12.32055 5.71545,-2.3088 11.56345,-3.46326 17.54401,-3.46338 12.26368,1.2e-4 22.67273,4.2773 31.2272,12.83154 7.1916,7.26753 10.78746,18.01725 10.78758,32.24918 l 0,81.64494 -30.65943,0 0,-54.165 c -1e-4,-14.76188 -0.66249,-24.56532 -1.98719,-29.41035 -1.32488,-4.84485 -3.6338,-8.53534 -6.92676,-11.07146 -3.29313,-2.53593 -7.36213,-3.80394 -12.207,-3.80404 -6.28336,1e-4 -11.67714,2.10084 -16.18137,6.30222 -4.50434,4.20156 -7.62706,10.01171 -9.36816,17.43045 -0.90847,3.86089 -1.36269,12.22599 -1.36264,25.09532 l 0,49.62286 -30.88654,0 z" />
      <path
         inkscape:connector-curvature="0"
         id="path8538"
         style="font-size:232.55749512px;font-style:normal;font-variant:normal;font-weight:bold;font-stretch:normal;line-height:125%;letter-spacing:0px;word-spacing:0px;fill:#000000;fill-opacity:1;stroke:none;font-family:Century Gothic;-inkscape-font-specification:Century Gothic Bold"
         d="m 627.22386,212.34536 30.88654,0 0,171.23862 -30.88654,0 0,-13.05864 c -6.05629,5.75338 -12.13139,9.89808 -18.22533,12.4341 -6.09412,2.53603 -12.69914,3.80404 -19.81508,3.80404 -15.97324,0 -29.7889,-6.18866 -41.44702,-18.56599 -11.65817,-12.3773 -17.48724,-27.76378 -17.48723,-46.15948 -10e-6,-19.0769 5.63981,-34.70942 16.91946,-46.89758 11.27961,-12.18796 24.98172,-18.28199 41.10636,-18.28211 7.41875,1.2e-4 14.38336,1.40062 20.89384,4.20148 6.5103,2.8011 12.52863,7.00258 18.055,12.60443 z m -32.58985,73.12843 c -9.61426,10e-5 -17.60084,3.38777 -23.95978,10.16304 -6.35904,6.77543 -9.53853,15.46227 -9.53849,26.06052 -4e-5,10.67407 3.23623,19.45553 9.70882,26.3444 6.47249,6.88894 14.44015,10.33339 23.90301,10.33337 9.76551,2e-5 17.86565,-3.38765 24.30044,-10.16304 6.43459,-6.77531 9.65193,-15.6514 9.65204,-26.62829 -1.1e-4,-10.74965 -3.21745,-19.45541 -9.65204,-26.11729 -6.43479,-6.66171 -14.57278,-9.99261 -24.414,-9.99271 z" />
      <path
         inkscape:connector-curvature="0"
         id="path8540"
         style="font-size:232.55749512px;font-style:normal;font-variant:normal;font-weight:bold;font-stretch:normal;line-height:125%;letter-spacing:0px;word-spacing:0px;fill:#f18e00;fill-opacity:1;stroke:none;font-family:Century Gothic;-inkscape-font-specification:Century Gothic Bold"
         d="m 701.60138,209.16586 c 5.45054,1.8e-4 10.12515,1.96844 14.02386,5.90478 3.89862,3.93669 5.84795,8.70593 5.848,14.30774 -5e-5,5.52642 -1.93045,10.23888 -5.79123,14.13741 -3.86085,3.8988 -8.47869,5.84813 -13.85352,5.848 -5.52629,1.3e-4 -10.23875,-1.98705 -14.1374,-5.96156 -3.89868,-3.97422 -5.84802,-8.80024 -5.84801,-14.47806 -10e-6,-5.45041 1.9304,-10.1061 5.79123,-13.96708 3.8608,-3.86065 8.51649,-5.79105 13.96707,-5.79123 z"
         sodipodi:nodetypes="ccccccscc" />
      <path
         d="m 686.04456,260.03782 31.11365,0 0,123.54616 -31.11365,0 z"
         style="font-size:232.55749512px;font-style:normal;font-variant:normal;font-weight:bold;font-stretch:normal;line-height:125%;letter-spacing:0px;word-spacing:0px;fill:#000000;fill-opacity:1;stroke:none;font-family:Century Gothic;-inkscape-font-specification:Century Gothic Bold"
         id="path8542"
         inkscape:connector-curvature="0"
         sodipodi:nodetypes="ccccc" />
    </g>
    <g
       transform="matrix(2.2481761,0,0,2.2481761,-504.11731,904.25277)"
       style="font-size:8px;font-style:normal;font-variant:normal;font-weight:300;font-stretch:normal;text-align:start;line-height:125%;letter-spacing:0px;word-spacing:0px;writing-mode:lr-tb;text-anchor:start;fill:#000000;fill-opacity:1;stroke:none;font-family:Frutiger LT Com 45 Light;-inkscape-font-specification:'Frutiger LT Com 45 Light, Light'"
       id="flowRoot3188">
      <path
         d="m 236.39526,57.879072 -0.656,0 -1.41602,-4.959961 -0.0161,0 -1.43994,4.959961 -0.66382,0 -1.6001,-5.583985 0.56787,0 1.37622,4.959961 0.0159,0 1.43213,-4.959961 0.66382,0 1.40796,4.959961 0.0161,0 1.3999,-4.959961 0.52808,0 z"
         style="font-family:Frutiger LT Com 45 Light;-inkscape-font-specification:'Frutiger LT Com 45 Light, Light'"
         id="path3183" />
      <path
         d="m 241.19824,55.551191 c 0,-0.37337 -0.0774,-0.698728 -0.23218,-0.976074 -0.16536,-0.282712 -0.43465,-0.429359 -0.80786,-0.439942 -0.368,0.01058 -0.65869,0.159916 -0.87207,0.447998 -0.21875,0.287926 -0.32812,0.610599 -0.32812,0.968018 z m 0.2478,2.199951 c -0.38395,0.14388 -0.77856,0.218506 -1.18383,0.223877 -0.66667,-0.01058 -1.14405,-0.215902 -1.43213,-0.615967 -0.28793,-0.389322 -0.42928,-0.895995 -0.42407,-1.520019 0.005,-0.634601 0.16544,-1.149249 0.48022,-1.543946 0.30387,-0.389319 0.7172,-0.586665 1.23999,-0.592041 0.57064,0.01075 0.98657,0.210779 1.2478,0.600098 0.25081,0.383955 0.37622,0.858564 0.37622,1.423828 l 0,0.256104 -2.79223,0 c 0,0.442709 0.11474,0.808025 0.34424,1.095947 0.22395,0.304037 0.55729,0.45874 1,0.464111 0.19726,0 0.40519,-0.03467 0.62378,-0.104004 0.21874,-0.05876 0.39208,-0.125406 0.52001,-0.199951 z"
         style="font-family:Frutiger LT Com 45 Light;-inkscape-font-specification:'Frutiger LT Com 45 Light, Light'"
         id="path3185" />
      <path
         d="m 247.22485,55.823163 -0.14404,0 c -0.21859,3e-6 -0.43726,0.0053 -0.65601,0.01587 -0.22933,0.02132 -0.43733,0.06665 -0.62402,0.135986 -0.18652,0.06397 -0.33586,0.162681 -0.448,0.296143 -0.12256,0.133302 -0.18384,0.311931 -0.18383,0.535888 -1e-5,0.261394 0.0853,0.44808 0.25585,0.560059 0.16,0.11735 0.35734,0.176025 0.59205,0.176025 0.29329,0 0.5253,-0.05868 0.69604,-0.176025 0.16536,-0.111979 0.28532,-0.245361 0.35986,-0.400147 0.0801,-0.1652 0.12549,-0.327798 0.13623,-0.487793 0.0106,-0.165363 0.0159,-0.30143 0.0159,-0.408203 z m 0.0481,1.399903 -0.0161,0 c -0.11736,0.240072 -0.29599,0.424072 -0.53589,0.552002 -0.24008,0.127929 -0.49341,0.19458 -0.76001,0.199951 -0.28272,-0.0054 -0.51205,-0.0507 -0.68799,-0.135986 -0.18132,-0.07992 -0.31999,-0.181234 -0.41602,-0.303955 -0.17073,-0.266601 -0.25073,-0.503906 -0.23999,-0.711915 0,-0.341469 0.0827,-0.610838 0.24805,-0.808105 0.15999,-0.197264 0.36532,-0.338621 0.61597,-0.424072 0.25065,-0.09065 0.52262,-0.149331 0.81591,-0.176026 0.28793,-0.01595 0.56527,-0.02392 0.83204,-0.02392 l 0.0959,0 0,-0.208008 c 0.016,-0.698565 -0.29337,-1.047848 -0.92798,-1.047852 -0.42138,-0.0054 -0.82137,0.106612 -1.19995,0.335938 l 0,-0.488037 c 0.37858,-0.17594 0.77857,-0.269283 1.19995,-0.28003 0.96533,-0.01058 1.44263,0.496098 1.43189,1.52002 l 0,1.800049 c -0.005,0.309245 0.008,0.594564 0.04,0.855957 l -0.49585,0 z"
         style="font-family:Frutiger LT Com 45 Light;-inkscape-font-specification:'Frutiger LT Com 45 Light, Light'"
         id="path3187" />
      <path
         d="m 248.92896,54.711103 c -1e-5,-0.37874 -0.0107,-0.682776 -0.032,-0.912109 l 0.50391,0 0,0.784179 0.0161,0 c 0.0959,-0.240068 0.23185,-0.445471 0.40796,-0.616211 0.17057,-0.170569 0.38387,-0.25854 0.63989,-0.263916 0.1333,0.0054 0.25065,0.02141 0.35205,0.0481 l 0,0.527832 c -0.11198,-0.0319 -0.23462,-0.04785 -0.36792,-0.04785 -0.19743,0.0054 -0.3601,0.05339 -0.48803,0.144043 -0.1281,0.09587 -0.2321,0.226485 -0.31201,0.391846 -0.0747,0.159997 -0.1281,0.333336 -0.16016,0.52002 -0.0373,0.19743 -0.0559,0.389406 -0.0559,0.575927 l 0,2.016114 -0.5039,0 z"
         style="font-family:Frutiger LT Com 45 Light;-inkscape-font-specification:'Frutiger LT Com 45 Light, Light'"
         id="path3189" />
      <path
         d="m 254.07324,55.551191 c 0,-0.37337 -0.0774,-0.698728 -0.23218,-0.976074 -0.16536,-0.282712 -0.43465,-0.429359 -0.80786,-0.439942 -0.368,0.01058 -0.65869,0.159916 -0.87207,0.447998 -0.21875,0.287926 -0.32812,0.610599 -0.32812,0.968018 z m 0.2478,2.199951 c -0.38395,0.14388 -0.77856,0.218506 -1.18383,0.223877 -0.66667,-0.01058 -1.14405,-0.215902 -1.43213,-0.615967 -0.28793,-0.389322 -0.42928,-0.895995 -0.42407,-1.520019 0.005,-0.634601 0.16544,-1.149249 0.48022,-1.543946 0.30387,-0.389319 0.7172,-0.586665 1.23999,-0.592041 0.57064,0.01075 0.98657,0.210779 1.2478,0.600098 0.25081,0.383955 0.37622,0.858564 0.37622,1.423828 l 0,0.256104 -2.79223,0 c 0,0.442709 0.11474,0.808025 0.34424,1.095947 0.22395,0.304037 0.55729,0.45874 1,0.464111 0.19726,0 0.40519,-0.03467 0.62378,-0.104004 0.21874,-0.05876 0.39208,-0.125406 0.52001,-0.199951 z"
         style="font-family:Frutiger LT Com 45 Light;-inkscape-font-specification:'Frutiger LT Com 45 Light, Light'"
         id="path3191" />
      <path
         d="m 258.93994,57.19914 0.008,0 1.17603,-3.400146 0.52808,0 -1.63208,4.687988 c -0.0907,0.293456 -0.21599,0.549478 -0.37598,0.768066 -0.0799,0.106607 -0.17587,0.189289 -0.28784,0.248047 -0.11198,0.06396 -0.23999,0.09863 -0.38404,0.104004 -0.18668,-2e-6 -0.368,-0.02132 -0.54394,-0.06396 l 0.0478,-0.432129 c 0.048,0.01611 0.1014,0.02946 0.16016,0.04004 0.0586,0.01595 0.13053,0.02392 0.21582,0.02393 0.208,-0.0052 0.36539,-0.0905 0.47216,-0.255859 0.10661,-0.154624 0.19458,-0.365317 0.26392,-0.63208 l 0.104,-0.359864 -1.44799,-4.128173 0.552,0 z"
         style="font-family:Frutiger LT Com 45 Light;-inkscape-font-specification:'Frutiger LT Com 45 Light, Light'"
         id="path3193" />
      <path
         d="m 261.59082,55.839033 c 0,0.485353 0.11735,0.885336 0.35205,1.199951 0.22396,0.330729 0.55729,0.498779 1,0.50415 0.44254,-0.0054 0.78117,-0.173421 1.01587,-0.50415 0.22396,-0.314615 0.33593,-0.714598 0.33594,-1.199951 -1e-5,-0.485349 -0.11198,-0.890704 -0.33594,-1.216065 -0.2347,-0.319983 -0.57333,-0.482581 -1.01587,-0.487793 -0.44271,0.0052 -0.77604,0.16781 -1,0.487793 -0.2347,0.325361 -0.35205,0.730716 -0.35205,1.216065 z m -0.552,0 c 0,-0.581378 0.15462,-1.07739 0.46387,-1.488038 0.3094,-0.42122 0.78946,-0.637202 1.44018,-0.647949 0.66129,0.01075 1.14656,0.226729 1.45581,0.647949 0.29866,0.410648 0.448,0.90666 0.448,1.488038 0,0.570639 -0.14934,1.063965 -0.448,1.47998 -0.30925,0.426758 -0.79452,0.645426 -1.45581,0.656006 -0.65072,-0.01058 -1.13078,-0.229248 -1.44018,-0.656006 -0.30925,-0.416015 -0.46387,-0.909341 -0.46387,-1.47998 z"
         style="font-family:Frutiger LT Com 45 Light;-inkscape-font-specification:'Frutiger LT Com 45 Light, Light'"
         id="path3195" />
      <path
         d="m 268.98779,56.919111 c -0.005,0.309245 0.005,0.629232 0.032,0.959961 l -0.4878,0 0,-0.728028 -0.0161,0 c -0.0373,0.09066 -0.088,0.181316 -0.1521,0.271973 -0.064,0.09603 -0.14657,0.186686 -0.2478,0.271973 -0.10141,0.08008 -0.22673,0.144124 -0.37598,0.192138 -0.14942,0.05859 -0.33081,0.08789 -0.54419,0.08789 -0.49593,-0.0054 -0.85327,-0.154704 -1.07202,-0.447998 -0.21859,-0.287923 -0.3252,-0.661213 -0.31982,-1.119873 l 0,-2.608154 0.5039,0 0,2.47998 c 0,0.389324 0.0773,0.69336 0.23193,0.912109 0.14942,0.234701 0.39478,0.352051 0.73609,0.352051 0.22933,0 0.42399,-0.04801 0.58398,-0.144043 0.15999,-0.09066 0.28263,-0.208007 0.36792,-0.352051 0.096,-0.14925 0.16276,-0.309243 0.2002,-0.47998 0.0373,-0.170734 0.0559,-0.341388 0.0559,-0.511963 l 0,-2.256103 0.5039,0 z"
         style="font-family:Frutiger LT Com 45 Light;-inkscape-font-specification:'Frutiger LT Com 45 Light, Light'"
         id="path3197" />
      <path
         d="m 270.25708,54.711103 c 0,-0.37874 -0.0107,-0.682776 -0.032,-0.912109 l 0.5039,0 0,0.784179 0.0161,0 c 0.0959,-0.240068 0.23185,-0.445471 0.40796,-0.616211 0.17057,-0.170569 0.38386,-0.25854 0.63989,-0.263916 0.1333,0.0054 0.25065,0.02141 0.35205,0.0481 l 0,0.527832 c -0.11198,-0.0319 -0.23462,-0.04785 -0.36792,-0.04785 -0.19743,0.0054 -0.36011,0.05339 -0.48804,0.144043 -0.12809,0.09587 -0.2321,0.226485 -0.31201,0.391846 -0.0747,0.159997 -0.12809,0.333336 -0.16016,0.52002 -0.0373,0.19743 -0.0559,0.389406 -0.0559,0.575927 l 0,2.016114 -0.50391,0 z"
         style="font-family:Frutiger LT Com 45 Light;-inkscape-font-specification:'Frutiger LT Com 45 Light, Light'"
         id="path3199" />
      <path
         d="m 274.82007,57.287031 c 0.30924,0.165365 0.6639,0.250732 1.06396,0.256103 0.25065,0 0.46395,-0.06665 0.6399,-0.199951 0.17073,-0.122721 0.25878,-0.298746 0.26416,-0.528076 -0.005,-0.24007 -0.10409,-0.429442 -0.29615,-0.568115 -0.19189,-0.133299 -0.41854,-0.253254 -0.67993,-0.359864 -0.12272,-0.05875 -0.24007,-0.120115 -0.35205,-0.184082 -0.11198,-0.06396 -0.21867,-0.135984 -0.32007,-0.216064 -0.0907,-0.08528 -0.16528,-0.183917 -0.22387,-0.295899 -0.0588,-0.106605 -0.0881,-0.23193 -0.0881,-0.375976 0.005,-0.405433 0.14404,-0.693437 0.41602,-0.864014 0.26139,-0.16536 0.56542,-0.248043 0.91211,-0.248047 0.11734,4e-6 0.26936,0.01067 0.45605,0.03198 0.18668,0.03207 0.37068,0.08277 0.552,0.152099 l -0.0481,0.439942 c -0.2933,-0.122718 -0.59465,-0.186683 -0.90406,-0.191895 -0.26123,4e-6 -0.46924,0.04794 -0.62402,0.143799 -0.0799,0.04802 -0.14119,0.11475 -0.18384,0.200195 -0.048,0.08529 -0.072,0.197269 -0.072,0.335938 0,0.08529 0.0293,0.165286 0.0879,0.23999 0.0588,0.06934 0.13615,0.133304 0.23218,0.191895 0.0959,0.05339 0.20516,0.109377 0.32788,0.167968 0.12272,0.05339 0.24276,0.112063 0.36011,0.176026 0.2666,0.111981 0.49853,0.261314 0.6958,0.447998 0.19742,0.186688 0.29882,0.445395 0.3042,0.776123 0,0.21338 -0.0427,0.392009 -0.12818,0.535888 -0.0907,0.149415 -0.20532,0.269451 -0.34399,0.360108 -0.29867,0.175944 -0.61597,0.263916 -0.9519,0.263916 -0.3947,0 -0.77605,-0.06397 -1.14405,-0.191895 l 0.0481,-0.496093 z"
         style="font-family:Frutiger LT Com 45 Light;-inkscape-font-specification:'Frutiger LT Com 45 Light, Light'"
         id="path3201" />
      <path
         d="m 278.48145,55.839033 c -10e-6,0.485353 0.11734,0.885336 0.35205,1.199951 0.22395,0.330729 0.55729,0.498779 1,0.50415 0.44254,-0.0054 0.78116,-0.173421 1.01587,-0.50415 0.22395,-0.314615 0.33593,-0.714598 0.33593,-1.199951 0,-0.485349 -0.11198,-0.890704 -0.33593,-1.216065 -0.23471,-0.319983 -0.57333,-0.482581 -1.01587,-0.487793 -0.44271,0.0052 -0.77605,0.16781 -1,0.487793 -0.23471,0.325361 -0.35206,0.730716 -0.35205,1.216065 z m -0.55201,0 c 0,-0.581378 0.15463,-1.07739 0.46387,-1.488038 0.30941,-0.42122 0.78947,-0.637202 1.44019,-0.647949 0.66129,0.01075 1.14656,0.226729 1.45581,0.647949 0.29866,0.410648 0.44799,0.90666 0.44799,1.488038 0,0.570639 -0.14933,1.063965 -0.44799,1.47998 -0.30925,0.426758 -0.79452,0.645426 -1.45581,0.656006 -0.65072,-0.01058 -1.13078,-0.229248 -1.44019,-0.656006 -0.30924,-0.416015 -0.46387,-0.909341 -0.46387,-1.47998 z"
         style="font-family:Frutiger LT Com 45 Light;-inkscape-font-specification:'Frutiger LT Com 45 Light, Light'"
         id="path3203" />
      <path
         d="m 282.69458,51.879072 0.50391,0 0,6 -0.50391,0 z"
         style="font-family:Frutiger LT Com 45 Light;-inkscape-font-specification:'Frutiger LT Com 45 Light, Light'"
         id="path3205" />
      <path
         d="m 287.65967,56.919111 c -0.005,0.309245 0.005,0.629232 0.032,0.959961 l -0.48779,0 0,-0.728028 -0.0161,0 c -0.0373,0.09066 -0.088,0.181316 -0.1521,0.271973 -0.064,0.09603 -0.14656,0.186686 -0.2478,0.271973 -0.1014,0.08008 -0.22673,0.144124 -0.37597,0.192138 -0.14942,0.05859 -0.33082,0.08789 -0.54419,0.08789 -0.49594,-0.0054 -0.85328,-0.154704 -1.07203,-0.447998 -0.21858,-0.287923 -0.32519,-0.661213 -0.31982,-1.119873 l 0,-2.608154 0.50391,0 0,2.47998 c 0,0.389324 0.0773,0.69336 0.23193,0.912109 0.14941,0.234701 0.39477,0.352051 0.73608,0.352051 0.22933,0 0.42399,-0.04801 0.58399,-0.144043 0.15999,-0.09066 0.28263,-0.208007 0.36792,-0.352051 0.096,-0.14925 0.16276,-0.309243 0.20019,-0.47998 0.0373,-0.170734 0.0559,-0.341388 0.0559,-0.511963 l 0,-2.256103 0.50391,0 z"
         style="font-family:Frutiger LT Com 45 Light;-inkscape-font-specification:'Frutiger LT Com 45 Light, Light'"
         id="path3207" />
      <path
         d="m 290.68896,54.231122 -0.92797,0 0,2.639893 c -10e-6,0.186687 0.0426,0.344076 0.12793,0.472168 0.0799,0.133301 0.21858,0.199951 0.41601,0.199951 0.18131,0 0.33594,-0.03198 0.46387,-0.09595 l 0.032,0.415771 c -0.0586,0.02148 -0.1412,0.04549 -0.2478,0.07202 -0.11215,0.02669 -0.23487,0.04004 -0.36817,0.04004 -0.21858,0 -0.39192,-0.03735 -0.52002,-0.112061 -0.12255,-0.07454 -0.2159,-0.173177 -0.28002,-0.295898 -0.0532,-0.127929 -0.0879,-0.271891 -0.10401,-0.431885 -0.0159,-0.159992 -0.0239,-0.333332 -0.0239,-0.520019 l 0,-2.384034 -0.80005,0 0,-0.432128 0.80005,0 0,-0.983887 0.50415,-0.176026 0,1.159913 0.92797,0 z"
         style="font-family:Frutiger LT Com 45 Light;-inkscape-font-specification:'Frutiger LT Com 45 Light, Light'"
         id="path3209" />
      <path
         d="m 292.08911,52.711103 -0.5039,0 0,-0.672119 0.5039,0 z m -0.5039,1.087891 0.5039,0 0,4.080078 -0.5039,0 z"
         style="font-family:Frutiger LT Com 45 Light;-inkscape-font-specification:'Frutiger LT Com 45 Light, Light'"
         id="path3211" />
      <path
         d="m 293.60645,55.839033 c -10e-6,0.485353 0.11734,0.885336 0.35205,1.199951 0.22395,0.330729 0.55729,0.498779 1,0.50415 0.44254,-0.0054 0.78116,-0.173421 1.01587,-0.50415 0.22395,-0.314615 0.33593,-0.714598 0.33593,-1.199951 0,-0.485349 -0.11198,-0.890704 -0.33593,-1.216065 -0.23471,-0.319983 -0.57333,-0.482581 -1.01587,-0.487793 -0.44271,0.0052 -0.77605,0.16781 -1,0.487793 -0.23471,0.325361 -0.35206,0.730716 -0.35205,1.216065 z m -0.55201,0 c 0,-0.581378 0.15463,-1.07739 0.46387,-1.488038 0.30941,-0.42122 0.78947,-0.637202 1.44019,-0.647949 0.66129,0.01075 1.14656,0.226729 1.45581,0.647949 0.29866,0.410648 0.44799,0.90666 0.44799,1.488038 0,0.570639 -0.14933,1.063965 -0.44799,1.47998 -0.30925,0.426758 -0.79452,0.645426 -1.45581,0.656006 -0.65072,-0.01058 -1.13078,-0.229248 -1.44019,-0.656006 -0.30924,-0.416015 -0.46387,-0.909341 -0.46387,-1.47998 z"
         style="font-family:Frutiger LT Com 45 Light;-inkscape-font-specification:'Frutiger LT Com 45 Light, Light'"
         id="path3213" />
      <path
         d="m 297.81958,54.758954 c 0,-0.314612 -0.0107,-0.634599 -0.032,-0.95996 l 0.48779,0 0,0.728027 0.0161,0 c 0.048,-0.09602 0.10401,-0.191972 0.16797,-0.287842 0.064,-0.09602 0.14396,-0.184078 0.23999,-0.26416 0.1014,-0.08528 0.22673,-0.151933 0.37598,-0.199951 0.14941,-0.04801 0.32812,-0.07202 0.53613,-0.07202 0.5013,0.0054 0.86125,0.154708 1.07984,0.447998 0.208,0.28809 0.312,0.661462 0.31201,1.120118 l 0,2.60791 -0.50391,0 0,-2.479981 c 0,-0.38932 -0.072,-0.698646 -0.21606,-0.927978 -0.15463,-0.218747 -0.40528,-0.330726 -0.75196,-0.335938 -0.44791,0.01058 -0.76261,0.170577 -0.94409,0.479981 -0.0959,0.143883 -0.16252,0.301191 -0.19995,0.471923 -0.0426,0.175947 -0.064,0.354576 -0.064,0.535889 l 0,2.256104 -0.50391,0 z"
         style="font-family:Frutiger LT Com 45 Light;-inkscape-font-specification:'Frutiger LT Com 45 Light, Light'"
         id="path3215" />
      <path
         d="m 302.42456,57.206953 0.64795,0 0,0.672119 -0.64795,0 z"
         style="font-family:Frutiger LT Com 45 Light;-inkscape-font-specification:'Frutiger LT Com 45 Light, Light'"
         id="path3217" />
    </g>
  </g>
</svg>
