<?xml version="1.0" encoding="UTF-8" standalone="no"?>
<!-- Created with Inkscape (http://www.inkscape.org/) -->

<svg
   xmlns:dc="http://purl.org/dc/elements/1.1/"
   xmlns:cc="http://creativecommons.org/ns#"
   xmlns:rdf="http://www.w3.org/1999/02/22-rdf-syntax-ns#"
   xmlns:svg="http://www.w3.org/2000/svg"
   xmlns="http://www.w3.org/2000/svg"
   xmlns:sodipodi="http://sodipodi.sourceforge.net/DTD/sodipodi-0.dtd"
   xmlns:inkscape="http://www.inkscape.org/namespaces/inkscape"
   width="203.75308"
   height="86.513176"
   id="svg2"
   version="1.1"
   inkscape:version="0.92.2 (5c3e80d, 2017-08-06)"
   sodipodi:docname="logo_products.svg"
   inkscape:export-filename="M:\Bildresourcen\Logo\arendi_logo_slogan.png"
   inkscape:export-xdpi="1410.6769"
   inkscape:export-ydpi="1410.6769"
   viewBox="0 0 191.01852 81.106103">
  <sodipodi:namedview
     id="base"
     pagecolor="#ffffff"
     bordercolor="#666666"
     borderopacity="1.0"
     inkscape:pageopacity="0.0"
     inkscape:pageshadow="2"
     inkscape:zoom="5.129157"
     inkscape:cx="53.556976"
     inkscape:cy="84.110964"
     inkscape:document-units="mm"
     inkscape:current-layer="layer1"
     showgrid="false"
     borderlayer="true"
     inkscape:window-width="2434"
     inkscape:window-height="1406"
     inkscape:window-x="115"
     inkscape:window-y="-11"
     inkscape:window-maximized="1"
     showguides="true"
     inkscape:guide-bbox="true"
     units="mm"
     inkscape:snap-global="false"
     fit-margin-top="10"
     fit-margin-left="10"
     fit-margin-right="10"
     fit-margin-bottom="10">
    <sodipodi:guide
       id="guide3764"
       position="786.03651,217.66526"
       orientation="0,1"
       inkscape:locked="false" />
    <sodipodi:guide
       orientation="1,0"
       position="724.30121,277.83764"
       id="guide4254"
       inkscape:locked="false" />
    <sodipodi:guide
       orientation="1,0"
       position="-122.60872,-51.321942"
       id="guide4256"
       inkscape:locked="false" />
    <sodipodi:guide
       orientation="0,1"
       position="249.17382,490.39464"
       id="guide4262"
       inkscape:locked="false" />
    <sodipodi:guide
       orientation="0,1"
       position="-32.721847,232.98398"
       id="guide4444"
       inkscape:locked="false" />
    <sodipodi:guide
       orientation="1,0"
       position="-25.578761,145.562"
       id="guide3517"
       inkscape:locked="false" />
    <sodipodi:guide
       orientation="1,0"
       position="370.75393,156.63961"
       id="guide3519"
       inkscape:locked="false" />
    <sodipodi:guide
       orientation="1,0"
       position="11.655755,61.938325"
       id="guide3530"
       inkscape:locked="false" />
    <sodipodi:guide
       orientation="1,0"
       position="188.85701,55.787921"
       id="guide3532"
       inkscape:locked="false" />
    <sodipodi:guide
       orientation="0,1"
       position="71.999339,79.229083"
       id="guide3534"
       inkscape:locked="false" />
    <sodipodi:guide
       orientation="0,1"
       position="30.223011,1.2466042"
       id="guide3536"
       inkscape:locked="false" />
    <sodipodi:guide
       orientation="1,0"
       position="18.734521,78.764901"
       id="guide3538"
       inkscape:locked="false" />
    <sodipodi:guide
       orientation="1,0"
       position="181.6622,81.201854"
       id="guide3540"
       inkscape:locked="false" />
    <sodipodi:guide
       orientation="0,1"
       position="71.303067,72.150316"
       id="guide3542"
       inkscape:locked="false" />
    <sodipodi:guide
       orientation="0,1"
       position="43.198332,7.3317328"
       id="guide3544"
       inkscape:locked="false" />
    <inkscape:grid
       type="xygrid"
       id="grid3546"
       empspacing="5"
       visible="true"
       enabled="true"
       snapvisiblegridlinesonly="true"
       originx="4.576988"
       originy="-5.8321617"
       spacingx="1"
       spacingy="1" />
  </sodipodi:namedview>
  <defs
     id="defs4" />
  <metadata
     id="metadata7">
    <rdf:RDF>
      <cc:Work
         rdf:about="">
        <dc:format>image/svg+xml</dc:format>
        <dc:type
           rdf:resource="http://purl.org/dc/dcmitype/StillImage" />
        <dc:title></dc:title>
      </cc:Work>
    </rdf:RDF>
  </metadata>
  <g
     transform="translate(4.5769881,-965.4239)"
     id="layer1"
     inkscape:groupmode="layer"
     inkscape:label="Ebene 1">
    <g
       transform="matrix(0.23059593,0,0,0.23059593,10.697735,926.5661)"
       id="g8528">
      <path
         inkscape:connector-curvature="0"
         id="path8530"
         style="font-style:normal;font-variant:normal;font-weight:bold;font-stretch:normal;font-size:232.55749512px;line-height:125%;font-family:'Century Gothic';-inkscape-font-specification:'Century Gothic Bold';letter-spacing:0px;word-spacing:0px;fill:#000000;fill-opacity:1;stroke:none"
         d="m 110.7827,260.03782 h 30.88654 V 383.58398 H 110.7827 v -13.05864 c -6.05629,5.75338 -12.131395,9.89808 -18.225336,12.4341 -6.094118,2.53603 -12.699138,3.80404 -19.815079,3.80404 -15.973241,0 -29.788898,-6.18866 -41.447015,-18.56599 -11.658171,-12.3773 -17.487243,-27.76378 -17.487233,-46.15948 -1e-5,-19.0769 5.639806,-34.70942 16.919466,-46.89758 11.279606,-12.18796 24.98171,-18.28199 41.106354,-18.28211 7.418751,1.2e-4 14.383356,1.40062 20.893837,4.20148 6.510304,2.8011 12.528636,7.00258 18.055006,12.60443 z m -32.589849,25.43597 c -9.614258,10e-5 -17.600844,3.38777 -23.959781,10.16304 -6.359038,6.77543 -9.538532,15.46227 -9.538491,26.06052 -4.1e-5,10.67407 3.23623,19.45553 9.708821,26.3444 6.472491,6.88894 14.440151,10.33339 23.903004,10.33337 9.765514,2e-5 17.865653,-3.38765 24.300446,-10.16304 6.43459,-6.77531 9.65193,-15.6514 9.65204,-26.62829 -1.1e-4,-10.74965 -3.21745,-19.45541 -9.65204,-26.11729 -6.434793,-6.66171 -14.572783,-9.99261 -24.413999,-9.99271 z" />
      <path
         inkscape:connector-curvature="0"
         id="path8532"
         style="font-style:normal;font-variant:normal;font-weight:bold;font-stretch:normal;font-size:232.55749512px;line-height:125%;font-family:'Century Gothic';-inkscape-font-specification:'Century Gothic Bold';letter-spacing:0px;word-spacing:0px;fill:#000000;fill-opacity:1;stroke:none"
         d="m 165.74256,260.03782 h 26.57152 v 15.55682 c 2.87665,-6.13177 6.69961,-10.78746 11.4689,-13.96708 4.76919,-3.17937 9.99264,-4.76912 15.67037,-4.76924 4.01216,1.2e-4 8.21363,1.05996 12.60444,3.1795 l -9.65205,26.68506 c -3.63377,-1.81676 -6.62401,-2.72518 -8.97072,-2.72528 -4.7693,1e-4 -8.80044,2.95248 -12.09344,8.85717 -3.2931,5.90486 -4.93962,17.4873 -4.93958,34.74736 l 0.11355,6.01833 v 49.96352 h -30.77299 z" />
      <path
         inkscape:connector-curvature="0"
         id="path8534"
         style="font-style:normal;font-variant:normal;font-weight:bold;font-stretch:normal;font-size:232.55749512px;line-height:125%;font-family:'Century Gothic';-inkscape-font-specification:'Century Gothic Bold';letter-spacing:0px;word-spacing:0px;fill:#a4e25a;fill-opacity:1;stroke:none"
         d="m 371.27434,330.78162 h -99.58639 c 1.4383,8.78152 5.28019,15.76505 11.52567,20.95062 6.24539,5.18563 14.21305,7.77843 23.90301,7.77841 11.58237,2e-5 21.53721,-4.05005 29.86456,-12.15022 l 26.1173,12.26377 c -6.51053,9.2357 -14.30786,16.06783 -23.39202,20.4964 -9.08437,4.42859 -19.87194,6.64288 -32.36273,6.64288 -19.37985,0 -35.16377,-6.11296 -47.3518,-18.33888 -12.18809,-12.2259 -18.28212,-27.53668 -18.28211,-45.93238 -1e-5,-18.84979 6.0751,-34.50123 18.22533,-46.95436 12.15018,-12.45291 27.38526,-18.67942 45.70527,-18.67954 19.4554,1.2e-4 35.27717,6.22663 47.46535,18.67954 12.18794,12.45313 18.28197,28.89944 18.28211,49.33898 z m -31.11365,-24.41399 c -2.04407,-6.88883 -6.07522,-12.49079 -12.09345,-16.80591 -6.01842,-4.31494 -13.00195,-6.47245 -20.95061,-6.47255 -8.63013,10e-5 -16.20035,2.42257 -22.71069,7.26742 -4.08798,3.02818 -7.87309,8.36519 -11.35535,16.01104 z" />
      <path
         inkscape:connector-curvature="0"
         id="path8536"
         style="font-style:normal;font-variant:normal;font-weight:bold;font-stretch:normal;font-size:232.55749512px;line-height:125%;font-family:'Century Gothic';-inkscape-font-specification:'Century Gothic Bold';letter-spacing:0px;word-spacing:0px;fill:#a4e25a;fill-opacity:1;stroke:none"
         d="m 396.48321,260.03782 h 30.88654 v 12.60443 c 7.04026,-5.90466 13.41817,-10.01151 19.13376,-12.32055 5.71545,-2.3088 11.56345,-3.46326 17.54401,-3.46338 12.26368,1.2e-4 22.67273,4.2773 31.2272,12.83154 7.1916,7.26753 10.78746,18.01725 10.78758,32.24918 v 81.64494 h -30.65943 v -54.165 c -1e-4,-14.76188 -0.66249,-24.56532 -1.98719,-29.41035 -1.32488,-4.84485 -3.6338,-8.53534 -6.92676,-11.07146 -3.29313,-2.53593 -7.36213,-3.80394 -12.207,-3.80404 -6.28336,1e-4 -11.67714,2.10084 -16.18137,6.30222 -4.50434,4.20156 -7.62706,10.01171 -9.36816,17.43045 -0.90847,3.86089 -1.36269,12.22599 -1.36264,25.09532 v 49.62286 h -30.88654 z" />
      <path
         inkscape:connector-curvature="0"
         id="path8538"
         style="font-style:normal;font-variant:normal;font-weight:bold;font-stretch:normal;font-size:232.55749512px;line-height:125%;font-family:'Century Gothic';-inkscape-font-specification:'Century Gothic Bold';letter-spacing:0px;word-spacing:0px;fill:#000000;fill-opacity:1;stroke:none"
         d="m 627.22386,212.34536 h 30.88654 v 171.23862 h -30.88654 v -13.05864 c -6.05629,5.75338 -12.13139,9.89808 -18.22533,12.4341 -6.09412,2.53603 -12.69914,3.80404 -19.81508,3.80404 -15.97324,0 -29.7889,-6.18866 -41.44702,-18.56599 -11.65817,-12.3773 -17.48724,-27.76378 -17.48723,-46.15948 -10e-6,-19.0769 5.63981,-34.70942 16.91946,-46.89758 11.27961,-12.18796 24.98172,-18.28199 41.10636,-18.28211 7.41875,1.2e-4 14.38336,1.40062 20.89384,4.20148 6.5103,2.8011 12.52863,7.00258 18.055,12.60443 z m -32.58985,73.12843 c -9.61426,10e-5 -17.60084,3.38777 -23.95978,10.16304 -6.35904,6.77543 -9.53853,15.46227 -9.53849,26.06052 -4e-5,10.67407 3.23623,19.45553 9.70882,26.3444 6.47249,6.88894 14.44015,10.33339 23.90301,10.33337 9.76551,2e-5 17.86565,-3.38765 24.30044,-10.16304 6.43459,-6.77531 9.65193,-15.6514 9.65204,-26.62829 -1.1e-4,-10.74965 -3.21745,-19.45541 -9.65204,-26.11729 -6.43479,-6.66171 -14.57278,-9.99261 -24.414,-9.99271 z" />
      <path
         inkscape:connector-curvature="0"
         id="path8540"
         style="font-style:normal;font-variant:normal;font-weight:bold;font-stretch:normal;font-size:232.55749512px;line-height:125%;font-family:'Century Gothic';-inkscape-font-specification:'Century Gothic Bold';letter-spacing:0px;word-spacing:0px;fill:#a4e25a;fill-opacity:1;stroke:none"
         d="m 701.60138,209.16586 c 5.45054,1.8e-4 10.12515,1.96844 14.02386,5.90478 3.89862,3.93669 5.84795,8.70593 5.848,14.30774 -5e-5,5.52642 -1.93045,10.23888 -5.79123,14.13741 -3.86085,3.8988 -8.47869,5.84813 -13.85352,5.848 -5.52629,1.3e-4 -10.23875,-1.98705 -14.1374,-5.96156 -3.89868,-3.97422 -5.84802,-8.80024 -5.84801,-14.47806 -10e-6,-5.45041 1.9304,-10.1061 5.79123,-13.96708 3.8608,-3.86065 8.51649,-5.79105 13.96707,-5.79123 z"
         sodipodi:nodetypes="ccccccscc" />
      <path
         d="m 686.04456,260.03782 h 31.11365 v 123.54616 h -31.11365 z"
         style="font-style:normal;font-variant:normal;font-weight:bold;font-stretch:normal;font-size:232.55749512px;line-height:125%;font-family:'Century Gothic';-inkscape-font-specification:'Century Gothic Bold';letter-spacing:0px;word-spacing:0px;fill:#000000;fill-opacity:1;stroke:none"
         id="path8542"
         inkscape:connector-curvature="0"
         sodipodi:nodetypes="ccccc" />
    </g>
    <g
       aria-label="Products"
       transform="matrix(0.79417595,0,0,0.79417595,-5.0702445,969.16722)"
       style="font-style:normal;font-weight:normal;font-size:40px;line-height:1.25;font-family:sans-serif;letter-spacing:0px;word-spacing:0px;opacity:0.41400003;fill:#000000;fill-opacity:1;stroke:none"
       id="flowRoot858">
      <path
         d="m 12.425781,56.33061 h 5.800781 q 4.707032,0 6.777344,0.878906 2.089844,0.859375 3.28125,2.8125 1.210938,1.933594 1.210938,4.648437 0,3.007813 -1.582032,5 -1.5625,1.992188 -4.257812,2.773438 -1.582031,0.449219 -5.761719,0.449219 v 12.167968 h -5.46875 z m 5.46875,11.230468 h 1.738281 q 2.050782,0 2.851563,-0.292968 0.800781,-0.292969 1.25,-0.957032 0.46875,-0.683593 0.46875,-1.640625 0,-1.660156 -1.289063,-2.421875 -0.9375,-0.566406 -3.476562,-0.566406 h -1.542969 z"
         style="font-style:normal;font-variant:normal;font-weight:bold;font-stretch:normal;font-family:'Century Gothic';-inkscape-font-specification:'Century Gothic Bold';opacity:0.41426146"
         id="path4687" />
      <path
         d="m 33.03125,63.811078 h 4.570312 v 2.675782 q 0.742188,-1.582032 1.972657,-2.402344 1.230468,-0.820313 2.695312,-0.820313 1.035156,0 2.167969,0.546875 l -1.660156,4.589844 q -0.9375,-0.46875 -1.542969,-0.46875 -1.230469,0 -2.089844,1.523438 -0.839844,1.523437 -0.839844,5.976562 l 0.01953,1.035156 v 8.59375 H 33.03125 Z"
         style="font-style:normal;font-variant:normal;font-weight:bold;font-stretch:normal;font-family:'Century Gothic';-inkscape-font-specification:'Century Gothic Bold';opacity:0.41426146"
         id="path4689" />
      <path
         d="m 57.074219,63.264203 q 3.007812,0 5.644531,1.503907 2.65625,1.503906 4.140625,4.082031 1.484375,2.578125 1.484375,5.566406 0,3.007813 -1.503906,5.625 -1.484375,2.617188 -4.0625,4.101563 -2.578125,1.464843 -5.683594,1.464843 -4.570313,0 -7.8125,-3.242187 -3.222656,-3.261719 -3.222656,-7.910156 0,-4.980469 3.652343,-8.300782 3.203125,-2.890625 7.363282,-2.890625 z m 0.07813,5.019532 q -2.480469,0 -4.140625,1.738281 -1.640625,1.71875 -1.640625,4.414062 0,2.773438 1.621093,4.492188 1.640625,1.71875 4.140625,1.71875 2.5,0 4.160157,-1.738281 1.660156,-1.738282 1.660156,-4.472657 0,-2.734375 -1.640625,-4.433593 -1.621094,-1.71875 -4.160156,-1.71875 z"
         style="font-style:normal;font-variant:normal;font-weight:bold;font-stretch:normal;font-family:'Century Gothic';-inkscape-font-specification:'Century Gothic Bold';opacity:0.41426146"
         id="path4691" />
      <path
         d="m 88.421875,55.607953 h 5.3125 v 29.453125 h -5.3125 v -2.246093 q -1.5625,1.484375 -3.144531,2.148437 -1.5625,0.644531 -3.398438,0.644531 -4.121094,0 -7.128906,-3.183593 -3.007813,-3.203125 -3.007813,-7.949219 0,-4.921875 2.910157,-8.066406 2.910156,-3.144532 7.070312,-3.144532 1.914063,0 3.59375,0.722657 1.679688,0.722656 3.105469,2.167968 z m -5.605469,12.578125 q -2.480469,0 -4.121094,1.757813 -1.640625,1.738281 -1.640625,4.472656 0,2.753906 1.660157,4.53125 1.679687,1.777344 4.121093,1.777344 2.519532,0 4.179688,-1.738281 1.660156,-1.757813 1.660156,-4.589844 0,-2.773438 -1.660156,-4.492188 -1.660156,-1.71875 -4.199219,-1.71875 z"
         style="font-style:normal;font-variant:normal;font-weight:bold;font-stretch:normal;font-family:'Century Gothic';-inkscape-font-specification:'Century Gothic Bold';opacity:0.41426146"
         id="path4693" />
      <path
         d="m 99.105469,63.811078 h 5.390621 v 10.234375 q 0,2.988282 0.41016,4.160157 0.41016,1.152343 1.30859,1.796875 0.91797,0.644531 2.2461,0.644531 1.32812,0 2.24609,-0.625 0.9375,-0.644531 1.38672,-1.875 0.33203,-0.917969 0.33203,-3.925781 V 63.811078 h 5.35156 v 9.003907 q 0,5.566406 -0.8789,7.617187 -1.07422,2.5 -3.16406,3.847656 -2.08985,1.328125 -5.3125,1.328125 -3.4961,0 -5.66407,-1.5625 -2.14843,-1.5625 -3.027341,-4.355468 -0.625,-1.933594 -0.625,-7.03125 z"
         style="font-style:normal;font-variant:normal;font-weight:bold;font-stretch:normal;font-family:'Century Gothic';-inkscape-font-specification:'Century Gothic Bold';opacity:0.41426146"
         id="path4695" />
      <path
         d="m 143.91016,68.107953 -4.4336,2.441407 q -1.25,-1.308594 -2.48047,-1.816407 -1.21093,-0.507812 -2.85156,-0.507812 -2.98828,0 -4.84375,1.796875 -1.83594,1.777344 -1.83594,4.570312 0,2.714844 1.77735,4.433594 1.77734,1.71875 4.66797,1.71875 3.57421,0 5.5664,-2.441406 l 4.19922,2.871094 q -3.41797,4.433593 -9.64844,4.433593 -5.60547,0 -8.78906,-3.320312 -3.16406,-3.320313 -3.16406,-7.773438 0,-3.085937 1.54297,-5.683593 1.54297,-2.597657 4.29687,-4.082032 2.77344,-1.484375 6.19141,-1.484375 3.16406,0 5.68359,1.269532 2.51953,1.25 4.1211,3.574218 z"
         style="font-style:normal;font-variant:normal;font-weight:bold;font-stretch:normal;font-family:'Century Gothic';-inkscape-font-specification:'Century Gothic Bold';opacity:0.41426146"
         id="path4697" />
      <path
         d="m 149.37891,55.979047 h 5.3125 v 7.832031 h 3.16406 v 4.589844 h -3.16406 v 16.660156 h -5.3125 V 68.400922 h -2.73438 v -4.589844 h 2.73438 z"
         style="font-style:normal;font-variant:normal;font-weight:bold;font-stretch:normal;font-family:'Century Gothic';-inkscape-font-specification:'Century Gothic Bold';opacity:0.41426146"
         id="path4699" />
      <path
         d="m 173.77344,66.779828 -3.30078,3.300782 q -2.01172,-1.992188 -3.65235,-1.992188 -0.89844,0 -1.40625,0.390625 -0.50781,0.371094 -0.50781,0.9375 0,0.429688 0.3125,0.800781 0.33203,0.351563 1.60156,0.976563 l 1.95313,0.976562 q 3.08593,1.523438 4.23828,3.105469 1.15234,1.582031 1.15234,3.710938 0,2.832031 -2.08984,4.726562 -2.07031,1.894531 -5.56641,1.894531 -4.64844,0 -7.42187,-3.632812 l 3.28125,-3.574219 q 0.9375,1.09375 2.1875,1.777344 1.26953,0.664062 2.24609,0.664062 1.05469,0 1.69922,-0.507812 0.64453,-0.507813 0.64453,-1.171875 0,-1.230469 -2.32422,-2.402344 l -1.79687,-0.898437 q -5.15625,-2.597657 -5.15625,-6.503907 0,-2.519531 1.93359,-4.296875 1.95313,-1.796875 4.98047,-1.796875 2.07031,0 3.88672,0.917969 1.83594,0.898438 3.10547,2.597656 z"
         style="font-style:normal;font-variant:normal;font-weight:bold;font-stretch:normal;font-family:'Century Gothic';-inkscape-font-specification:'Century Gothic Bold';opacity:0.41426146"
         id="path4701" />
    </g>
  </g>
</svg>
